stop_id,stop_name,stop_desc,stop_lat,stop_lon
9113,SOUTHRIDGE & GRANGE #9113,,42.9451148,-88.0042294
4664,GRANGE & NORTHWAY #4664,,42.9446866,-88.0037764
4756,NORTHWAY & EUSTON #4756,,42.943593,-88.0021421
4757,NORTHWAY & ARBUTUS #4757,,42.9435133,-88.0004225
4758,NORTHWAY & ARROWWOOD #4758,,42.9424858,-87.9984948